UK map at County/Unitary Authority level — counties • ukmaps
…
    Source: R/country-map.R
    counties.Rd

    Merges boundaries to County/Unitary Authority level from the unified dataset.

counties()

    Value

    A tibble with multipolygon geometry for each County/Unitary Authority.

    Examples

counties()
#> # A tibble: 218 × 3
#>    county_code county_name                                              geometry
#>    <fct>       <fct>                                              <GEOMETRY [m]>
#>  1 E06000001   Hartlepool                  MULTIPOLYGON (((450440.6 525837.2, 4…
#>  2 E06000002   Middlesbrough               MULTIPOLYGON (((446752.6 513851.5, 4…
#>  3 E06000003   Redcar and Cleveland        POLYGON ((458715.4 512752.6, 457615 …
#>  4 E06000004   Stockton-on-Tees            MULTIPOLYGON (((440191.3 511142.5, 4…
#>  5 E06000005   Darlington                  POLYGON ((425952 513606.5, 425374.3 …
#>  6 E06000006   Halton                      MULTIPOLYGON (((351393.4 379684.4, 3…
#>  7 E06000007   Warrington                  POLYGON ((363832.6 381650.8, 363359 …
#>  8 E06000008   Blackburn with Darwen       POLYGON ((366046.9 421896.6, 364978.…
#>  9 E06000009   Blackpool                   POLYGON ((330334.9 432487.4, 330491.…
#> 10 E06000010   Kingston upon Hull, City of POLYGON ((504730.9 428282.8, 505362.…
#> # ℹ 208 more rows
…
